region1 |   Polygon ((274562.1947296594735235 139767.87222839269088581, 279415.54867625923361629 158372.3956903584767133, 294784.50284049182664603 161607.96498809166951105, 318242.38024905731435865 144621.22617499245097861, 274562.1947296594735235 139767.87222839269088581))

region2 |   POLYGON ((261749.40378700295696035 155525.41096357145579532, 260536.06530035304604098 174129.93442553724162281, 272669.45016685244627297 180601.07302100356901065, 281162.81957340205553919 174534.38058775386889465, 274691.68097793566994369 161592.10339682115591131, 261749.40378700295696035 155525.41096357145579532))

region3 |   POLYGON ((241527.09567617060383782 185049.98080538670183159, 236269.29556735418736935 200823.38113183595123701, 251233.80356937012402341 215383.44297163526061922, 273073.89632906910264865 213765.65832276866422035, 278736.14260010217549279 201227.82729405257850885, 263367.18843586958246306 183836.6423187367618084, 241527.09567617060383782 185049.98080538670183159))

region4 |   POLYGON ((286825.06584443512838334 213361.2121605520369485, 318776.31265955028356984 197992.25799631941481493, 300576.23535980115411803 176556.6113988371216692, 281567.26573561871191487 192330.01172528637107462, 286825.06584443512838334 213361.2121605520369485))

region5 |   POLYGON ((324376.74022943596355617 149402.75946825748542324, 300619.65685187332564965 160707.24523899360792711, 301326.18721254431875423 164239.89704234868986532, 303534.09458964120130986 172276.67989498141105287, 308126.54193400277290493 178900.40202627211692743, 313072.25445869984105229 182344.73753454329562373, 317223.12032764201285318 184552.6449116402072832, 322875.36321301013231277 186495.60340348546742462, 328350.97350821044528857 186583.91969856934156269, 337005.97042643028544262 185259.17527231120038778, 324376.74022943596355617 149402.75946825748542324))

bstn |  POINT (301536.79499506572028622 147992.60119228629628196)

rmtstn1 |   POINT (286268.95237138727679849 154362.62824719850323163)

rmtstn2 |    POINT (266754.42504443402867764 163058.22073485641158186)

rmtstn3 |   POINT (270899.99820715468376875 173270.48633082676678896)

rmtstn4 |   POINT (262204.40571949671721086 187122.76738674694206566)

rmtstn5 |   POINT (248857.68236634737695567 199761.70995601717731915)

rmtstn6 |   POINT (266147.75580110907321796 204918.39852427941514179)

rmtstn7 |   POINT (291830.08710186614189297 199357.26379380052094348)

rmtstn8 |   POINT (306895.7066444362862967 195110.57909052571631037)

rmtstn9 |   POINT (297391.22183234506519511 184291.64425123040564358)

rmtstn10 |  POINT (308109.04513108625542372 170944.92089808103628457)

rmtstn11 |  POINT (323882.44545753544662148 180146.07108850977965631)

rmtstn12 |  POINT (326511.34551194368395954 160934.8783832190092653)